^C:\USERS\27694\DESKTOP\1\EYE_TRACK\EYE_TRACK\COMMON.CPP
/c /I"C:\PROGRAM FILES\NVIDIA GPU COMPUTING TOOLKIT\CUDA\V11.6\INCLUDE" /Zi /nologo /W3 /WX- /diagnostics:column /O2 /Oi /GL /D _CRT_SECURE_NO_WARNINGS /D WIN32 /D WIN64 /D NDEBUG /D _CONSOLE /D _MBCS /Gm- /EHsc /MD /GS /Gy /fp:precise /Zc:wchar_t /Zc:forScope /Zc:inline /Fo"X64\RELEASE\\" /Fd"X64\RELEASE\VC142.PDB" /external:W3 /Gd /TP /FC C:\USERS\27694\DESKTOP\1\EYE_TRACK\EYE_TRACK\COMMON.CPP
^C:\USERS\27694\DESKTOP\1\EYE_TRACK\EYE_TRACK\DCF_PARTS.CPP
/c /I"C:\PROGRAM FILES\NVIDIA GPU COMPUTING TOOLKIT\CUDA\V11.6\INCLUDE" /Zi /nologo /W3 /WX- /diagnostics:column /O2 /Oi /GL /D _CRT_SECURE_NO_WARNINGS /D WIN32 /D WIN64 /D NDEBUG /D _CONSOLE /D _MBCS /Gm- /EHsc /MD /GS /Gy /fp:precise /Zc:wchar_t /Zc:forScope /Zc:inline /Fo"X64\RELEASE\\" /Fd"X64\RELEASE\VC142.PDB" /external:W3 /Gd /TP /FC C:\USERS\27694\DESKTOP\1\EYE_TRACK\EYE_TRACK\DCF_PARTS.CPP
^C:\USERS\27694\DESKTOP\1\EYE_TRACK\EYE_TRACK\UNET_PARTS.CPP
/c /I"C:\PROGRAM FILES\NVIDIA GPU COMPUTING TOOLKIT\CUDA\V11.6\INCLUDE" /Zi /nologo /W3 /WX- /diagnostics:column /O2 /Oi /GL /D _CRT_SECURE_NO_WARNINGS /D WIN32 /D WIN64 /D NDEBUG /D _CONSOLE /D _MBCS /Gm- /EHsc /MD /GS /Gy /fp:precise /Zc:wchar_t /Zc:forScope /Zc:inline /Fo"X64\RELEASE\\" /Fd"X64\RELEASE\VC142.PDB" /external:W3 /Gd /TP /FC C:\USERS\27694\DESKTOP\1\EYE_TRACK\EYE_TRACK\UNET_PARTS.CPP
^C:\USERS\27694\DESKTOP\1\EYE_TRACK\EYE_TRACK\BUILD_ENGINE.CPP
/c /I"C:\PROGRAM FILES\NVIDIA GPU COMPUTING TOOLKIT\CUDA\V11.6\INCLUDE" /Zi /nologo /W3 /WX- /diagnostics:column /O2 /Oi /GL /D _CRT_SECURE_NO_WARNINGS /D WIN32 /D WIN64 /D NDEBUG /D _CONSOLE /D _MBCS /Gm- /EHsc /MD /GS /Gy /fp:precise /Zc:wchar_t /Zc:forScope /Zc:inline /Fo"X64\RELEASE\\" /Fd"X64\RELEASE\VC142.PDB" /external:W3 /Gd /TP /FC C:\USERS\27694\DESKTOP\1\EYE_TRACK\EYE_TRACK\BUILD_ENGINE.CPP
^C:\USERS\27694\DESKTOP\1\EYE_TRACK\EYE_TRACK\EYE_TRACKING.CPP
/c /I"C:\PROGRAM FILES\NVIDIA GPU COMPUTING TOOLKIT\CUDA\V11.6\INCLUDE" /Zi /nologo /W3 /WX- /diagnostics:column /O2 /Oi /GL /D _CRT_SECURE_NO_WARNINGS /D WIN32 /D WIN64 /D NDEBUG /D _CONSOLE /D _MBCS /Gm- /EHsc /MD /GS /Gy /fp:precise /Zc:wchar_t /Zc:forScope /Zc:inline /Fo"X64\RELEASE\\" /Fd"X64\RELEASE\VC142.PDB" /external:W3 /Gd /TP /FC C:\USERS\27694\DESKTOP\1\EYE_TRACK\EYE_TRACK\EYE_TRACKING.CPP
